Status,
Auto Level,5th Level
Self Level,5th Level
Wallet,25100/-
Direct Referrals,3
In-Direct Referrals,502
Account,
ID,000000001
Full Name,JS Brothers
Date Of Birth,24-09-1969
CNIC,42501-7178154-1
Email,jsbrothers@gmail.com
Contact Number,92-323-258-7665
Address,"A-74, Bilal Town Malir Halt Karachi "
City,
Referral ID,
Status,Approved
Product Detail,
Product Name,Supreme Card
Package Activation,Start: 06 Sep 2018 TO End: 06 Sep 2019
Bank Detail,
Bank Name,
Branch Code,
Account Title,
Account Number,
IBAN,
Address,
