Date,ID,Description,Debit (DR),Credit (CR),
27-Nov-2018 03:25:42,2927,voucher 1,100,0,
27-Nov-2018 03:26:26,2928,voucher 2,0,0,
27-Nov-2018 03:26:42,2929,voucher 3,0,100,
27-Nov-2018 03:27:21,2930,deduct wallet check,0,1800,
,,Total,100,1900,-1800
