Date,ID,P/R,Description,Status,Debit (DR),Credit (CR),
01-Dec-2018 04:34:54,5862,Finance Details,Activation Fees From User ID 000000816,,5000,0,
01-Dec-2018 04:34:54,5863,Finance Details,Issued Commission To User ID 000000781,,0,1000,
01-Dec-2018 04:34:54,5864,Finance Details,Issued Commission To User ID 000000608,,0,300,
01-Dec-2018 04:34:54,5865,Finance Details,Issued Commission To User ID 000000478,,0,200,
01-Dec-2018 04:34:54,5866,Finance Details,Issued Commission To User ID 000000077,,0,200,
01-Dec-2018 04:34:54,5867,Finance Details,Issued Commission To User ID 000000019,,0,200,
01-Dec-2018 04:34:54,5868,Finance Details,Issued Commission To User ID 000000004,,0,200,
01-Dec-2018 04:34:54,5869,Finance Details,Issued Commission To User ID 000000001,,0,200,
01-Dec-2018 04:45:02,5870,Finance Details,Activation Fees From User ID 000000817,,5000,0,
01-Dec-2018 04:45:02,5871,Finance Details,Issued Commission To User ID 000000816,,0,1000,
01-Dec-2018 04:45:02,5872,Finance Details,Issued Commission To User ID 000000781,,0,300,
01-Dec-2018 04:45:02,5873,Finance Details,Issued Commission To User ID 000000608,,0,200,
01-Dec-2018 04:45:02,5874,Finance Details,Issued Commission To User ID 000000478,,0,200,
01-Dec-2018 04:45:02,5875,Finance Details,Issued Commission To User ID 000000077,,0,200,
01-Dec-2018 04:45:02,5876,Finance Details,Issued Commission To User ID 000000019,,0,200,
01-Dec-2018 04:45:02,5877,Finance Details,Issued Commission To User ID 000000004,,0,200,
01-Dec-2018 04:45:02,5878,Finance Details,Issued Commission To User ID 000000001,,0,200,
01-Dec-2018 09:31:25,5879,Finance Details,Funds Transfered To User ID 000000815,,0,150000,
01-Dec-2018 09:40:08,5880,Finance Details,Funds Transfered To User ID 000000020,,0,5000,
01-Dec-2018 11:52:33,5881,Finance Details,Activation Fees From User ID 000000818,,5000,0,
01-Dec-2018 11:52:33,5882,Finance Details,Issued Commission To User ID 000000767,,0,1000,
01-Dec-2018 11:52:33,5883,Finance Details,Issued Commission To User ID 000000756,,0,300,
01-Dec-2018 11:52:33,5884,Finance Details,Issued Commission To User ID 000000725,,0,200,
01-Dec-2018 11:52:33,5885,Finance Details,Issued Commission To User ID 000000684,,0,200,
01-Dec-2018 11:52:33,5886,Finance Details,Issued Commission To User ID 000000618,,0,200,
01-Dec-2018 11:52:33,5887,Finance Details,Issued Commission To User ID 000000617,,0,200,
01-Dec-2018 11:52:33,5888,Finance Details,Issued Commission To User ID 000000582,,0,200,
01-Dec-2018 11:52:33,5889,Finance Details,Issued Commission To User ID 000000569,,0,200,
01-Dec-2018 11:52:33,5890,Finance Details,Issued Commission To User ID 000000516,,0,200,
02-Dec-2018 09:23:28,5891,Finance Details,Activation Fees From User ID 000000819,,5000,0,
02-Dec-2018 09:23:28,5892,Finance Details,Issued Commission To User ID 000000815,,0,1000,
02-Dec-2018 09:23:28,5893,Finance Details,Issued Commission To User ID 000000814,,0,300,
02-Dec-2018 09:23:28,5894,Finance Details,Issued Commission To User ID 000000813,,0,200,
02-Dec-2018 09:23:28,5895,Finance Details,Issued Commission To User ID 000000812,,0,200,
02-Dec-2018 09:23:28,5896,Finance Details,Issued Commission To User ID 000000811,,0,200,
02-Dec-2018 09:23:28,5897,Finance Details,Issued Commission To User ID 000000810,,0,200,
02-Dec-2018 09:23:28,5898,Finance Details,Issued Commission To User ID 000000809,,0,200,
02-Dec-2018 09:23:28,5899,Finance Details,Issued Commission To User ID 000000808,,0,200,
02-Dec-2018 09:23:28,5900,Finance Details,Issued Commission To User ID 000000807,,0,200,
02-Dec-2018 10:24:43,5901,Finance Details,Activation Fees From User ID 000000820,,5000,0,
02-Dec-2018 10:24:43,5902,Finance Details,Issued Commission To User ID 000000819,,0,1000,
02-Dec-2018 10:24:43,5903,Finance Details,Issued Commission To User ID 000000815,,0,300,
02-Dec-2018 10:24:43,5904,Finance Details,Issued Commission To User ID 000000814,,0,200,
02-Dec-2018 10:24:43,5905,Finance Details,Issued Commission To User ID 000000813,,0,200,
02-Dec-2018 10:24:43,5906,Finance Details,Issued Commission To User ID 000000812,,0,200,
02-Dec-2018 10:24:43,5907,Finance Details,Issued Commission To User ID 000000811,,0,200,
02-Dec-2018 10:24:43,5908,Finance Details,Issued Commission To User ID 000000810,,0,200,
02-Dec-2018 10:24:43,5909,Finance Details,Issued Commission To User ID 000000809,,0,200,
02-Dec-2018 10:24:43,5910,Finance Details,Issued Commission To User ID 000000808,,0,200,
02-Dec-2018 10:35:32,5911,Finance Details,Activation Fees From User ID 000000821,,5000,0,
02-Dec-2018 10:35:32,5912,Finance Details,Issued Commission To User ID 000000820,,0,1000,
02-Dec-2018 10:35:32,5913,Finance Details,Issued Commission To User ID 000000819,,0,300,
02-Dec-2018 10:35:32,5914,Finance Details,Issued Commission To User ID 000000815,,0,200,
02-Dec-2018 10:35:32,5915,Finance Details,Issued Commission To User ID 000000814,,0,200,
02-Dec-2018 10:35:32,5916,Finance Details,Issued Commission To User ID 000000813,,0,200,
02-Dec-2018 10:35:32,5917,Finance Details,Issued Commission To User ID 000000812,,0,200,
02-Dec-2018 10:35:32,5918,Finance Details,Issued Commission To User ID 000000811,,0,200,
02-Dec-2018 10:35:32,5919,Finance Details,Issued Commission To User ID 000000810,,0,200,
02-Dec-2018 10:35:32,5920,Finance Details,Issued Commission To User ID 000000809,,0,200,
02-Dec-2018 12:23:52,5921,Finance Details,Activation Fees From User ID 000000822,,5000,0,
02-Dec-2018 12:23:52,5922,Finance Details,Issued Commission To User ID 000000821,,0,1000,
02-Dec-2018 12:23:52,5923,Finance Details,Issued Commission To User ID 000000820,,0,300,
02-Dec-2018 12:23:52,5924,Finance Details,Issued Commission To User ID 000000819,,0,200,
02-Dec-2018 12:23:52,5925,Finance Details,Issued Commission To User ID 000000815,,0,200,
02-Dec-2018 12:23:52,5926,Finance Details,Issued Commission To User ID 000000814,,0,200,
02-Dec-2018 12:23:52,5927,Finance Details,Issued Commission To User ID 000000813,,0,200,
02-Dec-2018 12:23:52,5928,Finance Details,Issued Commission To User ID 000000812,,0,200,
02-Dec-2018 12:23:52,5929,Finance Details,Issued Commission To User ID 000000811,,0,200,
02-Dec-2018 12:23:52,5930,Finance Details,Issued Commission To User ID 000000810,,0,200,
02-Dec-2018 11:09:42,5931,Finance Details,Funds Transfered To User ID 000000458,,0,2500,
03-Dec-2018 12:05:30,5932,Finance Details,Activation Fees From User ID 000000823,,5000,0,
03-Dec-2018 12:05:30,5933,Finance Details,Issued Commission To User ID 000000469,,0,1000,
03-Dec-2018 12:05:30,5934,Finance Details,Issued Commission To User ID 000000458,,0,300,
03-Dec-2018 12:05:30,5935,Finance Details,Issued Commission To User ID 000000020,,0,200,
03-Dec-2018 12:05:30,5936,Finance Details,Issued Commission To User ID 000000019,,0,200,
03-Dec-2018 12:05:30,5937,Finance Details,Issued Commission To User ID 000000004,,0,200,
03-Dec-2018 12:05:30,5938,Finance Details,Issued Commission To User ID 000000001,,0,200,
03-Dec-2018 01:29:33,5939,Finance Details,Funds Transfered To User ID 000000542,,0,5000,
03-Dec-2018 01:36:18,5940,Finance Details,Activation Fees From User ID 000000824,,5000,0,
03-Dec-2018 01:36:18,5941,Finance Details,Issued Commission To User ID 000000542,,0,1000,
03-Dec-2018 01:36:18,5942,Finance Details,Issued Commission To User ID 000000541,,0,300,
03-Dec-2018 01:36:18,5943,Finance Details,Issued Commission To User ID 000000469,,0,200,
03-Dec-2018 01:36:18,5944,Finance Details,Issued Commission To User ID 000000458,,0,200,
03-Dec-2018 01:36:18,5945,Finance Details,Issued Commission To User ID 000000020,,0,200,
03-Dec-2018 01:36:18,5946,Finance Details,Issued Commission To User ID 000000019,,0,200,
03-Dec-2018 01:36:18,5947,Finance Details,Issued Commission To User ID 000000004,,0,200,
03-Dec-2018 01:36:18,5948,Finance Details,Issued Commission To User ID 000000001,,0,200,
03-Dec-2018 01:42:36,5949,Finance Details,Activation Fees From User ID 000000825,,5000,0,
03-Dec-2018 01:42:36,5950,Finance Details,Issued Commission To User ID 000000824,,0,1000,
03-Dec-2018 01:42:36,5951,Finance Details,Issued Commission To User ID 000000542,,0,300,
03-Dec-2018 01:42:36,5952,Finance Details,Issued Commission To User ID 000000541,,0,200,
03-Dec-2018 01:42:36,5953,Finance Details,Issued Commission To User ID 000000469,,0,200,
03-Dec-2018 01:42:36,5954,Finance Details,Issued Commission To User ID 000000458,,0,200,
03-Dec-2018 01:42:36,5955,Finance Details,Issued Commission To User ID 000000020,,0,200,
03-Dec-2018 01:42:36,5956,Finance Details,Issued Commission To User ID 000000019,,0,200,
03-Dec-2018 01:42:36,5957,Finance Details,Issued Commission To User ID 000000004,,0,200,
03-Dec-2018 01:42:36,5958,Finance Details,Issued Commission To User ID 000000001,,0,200,
30-Dec-2018 12:11:35,5959,Finance Details,Activation Fees From User ID 000000826,,7000,0,
30-Dec-2018 12:11:35,5960,Finance Details,Issued Commission To User ID 000000121,,0,1000,
30-Dec-2018 12:11:35,5961,Finance Details,Issued Commission To User ID 000000006,,0,300,
30-Dec-2018 12:11:35,5962,Finance Details,Issued Commission To User ID 000000001,,0,200,
30-Dec-2018 12:11:35,5963,Finance Details,Issued Commission For Branch To User ID 000000006.,,0,200,
30-Dec-2018 12:11:35,5964,Finance Details,Issued Commission For Region To User ID 000000001.,,0,75,
30-Dec-2018 12:11:35,5965,Finance Details,Issued Commission For Country To User ID 000000002.,,0,25,
30-Dec-2018 12:17:14,5966,Finance Details,Activation Fees From User ID 000000827,,7000,0,
30-Dec-2018 12:17:14,5967,Finance Details,Issued Commission For Zone To User ID 000000121.,,0,60,
30-Dec-2018 12:17:14,5968,Finance Details,Issued Commission For Region To User ID 000000001.,,0,75,
30-Dec-2018 12:17:14,5969,Finance Details,Issued Commission For Country To User ID 000000002.,,0,25,
30-Dec-2018 10:47:33,5970,Finance Details,Activation Fees From User ID 000005521,,4000,0,
30-Dec-2018 10:47:33,5971,Finance Details,Issued Commission For Branch To User ID 000000006.,,0,200,
30-Dec-2018 10:47:33,5972,Finance Details,Issued Commission For Zone To User ID 000000121.,,0,60,
30-Dec-2018 10:47:33,5973,Finance Details,Issued Commission For Region To User ID 000000001.,,0,75,
30-Dec-2018 10:47:33,5974,Finance Details,Issued Commission For Country To User ID 000000002.,,0,25,
,,,Total,,68000,190420,-122420
