REGIONAL,ZONAL,BRANCH
PUNJAB  ,RAWALPINDI,ATTOCK
,,FATEH JANG
,,HASSANABDAL
,,HAZRO
,,JAND
,,PINDI GHEB
,,RAWALPINDI
,,GUJAR KHAN
,,KAHUTA
,,KALLAR SAYYEDAN
,,KOTLI SATTIAN
,,MURREE
,,TAXILA
,,DINA
,,JHELUM
,,PIND DADAN KHAN
,,SOHAWA
,,CHAKWAL
,,CHOA SAIDAN SHAH
,,KALLAR KAHAR
,,LAWA
,,TALAGANG
,SARGODHA,SARGODHA
,,BHALWAL
,,BHERA
,,KOT MOMIN
,,SAHIWAL
,,SARGODHA
,,SHAHPUR
,,SILLANWALI
,,BHAKKAR
,,DARYA KHAN
,,KALUR KOT
,,MANKERA
,,KHUSHAB
,,NAUSHEHRA
,,NURPUR
,,QUAIDABAD
,,MIANWALI 1 ISA KHEL
,,MIANWALI
,,PIPLAN
,FAISALABAD,CHAK JHUMRA
,,FAISALABAD CITY
,,FAISALABAD SADDAR
,,JARANWALA
,,SAMMUNDRI
,,TANDLIANWALA
,,JHANG
,,18-HAZARI
,,AHMEDPUR SIAL
,,SHORKOT
,,CHINIOT
,,BHAWANA
,,LALIAN
,,TOBA TEK SINGH
,,GOJRA
,,KAMALIA
,,PIR MAHAL
,,TOBA TEK SINGH
,GUJRANWALA,GUJRANWALA CITY
,,GUJRANWALA SADDAR
,,KAMOKE
,,NOWSHERA VIRKAN
,,WAZIRABAD
,,HAFIZABAD
,,PINDI BHATTIAN
,,MALIKWAL
,,MANDI BAHAUDDIN
,,PHALIA
,,GUJRAT
,,KHARIAN
,,SARAI ALAMGIR
,,DASKA
,,PASRUR
,,SAMBRIAL
,,SIALKOT
,,NAROWAL
,,SHAKARGARH
,,ZAFARWAL
,LAHORE,LAHORE
,,LAHORE CANTT
,,LAHORE CITY
,,MODEL TOWN
,,RAIWIND
,,SHALIMAR
,,CHUNIAN
,,KASUR
,,KOT RADHA KISHAN
,,PATTOKI
,,SHEIKHUPURA
,,FEROZEWALA
,,MURIDKAY
,,SAFDARABAD
,,SHARAQPUR
,,SHEIKHUPURA
,,NANKANA SAHIB
,,SANGLA HILL
,,SHAHKOT
,SAHIWAL, CHICHAWATNI
,,SAHIWAL
,,DEPALPUR
,,OKARA
,,RENALA KHURD
,,ARIFWALA
,,PAKPATTAN
,MULTAN,BUREWALA
,,MAILSI
,,VEHARI
,,MULTAN
,,MULTAN CITY
,,MULTAN SADDAR
,,JALALPUR PIRWALA
,,SHUJABAD
,,DUNYAPUR
,,KAHROR PACCA
,,LODHRAN
,,JEHANIAN
,,KABIRWALA
,,KHANEWAL
,,MIAN CHANNU
,DERA GHAZI KHAN,DERA GHAZI KHAN
,,DE-EX.AREA OF D.G.KHAN
,,TAUNSA
,,KOT CHUTTA
,,DE-EX.AREA OF RAJANPUR
,,JAMPUR
,,RAJANPUR
,,ROJHAN
,,CHAUBARA
,,KAROR LAL ESAN
,,LAYYAH
,,ALIPUR
,,JATOI
,,KOT ADDU
,,MUZAFFARGARH
,BAHAWALPUR,AHMADPUR EAST
,,BAHAWALPUR
,,BAHAWALPUR CITY
,,BAHAWALPUR SADDAR
,,HASILPUR
,,KHAIRPUR TAMEWALI
,,YAZMAN
,,BAHAWALNAGAR
,,CHISHTIAN
,,FORT ABBAS
,,HAROONABAD
,,MINCHINABAD
,RAHIM YAR KHAN,KHANPUR
,,LIAQUATPUR
,,RAHIM YAR KHAN
,,SADIQABAD